Rogers_CH16
…
Next were going to estimate fixed effects by including distid as a set of dummies. This can be extremely slow, so for demonstration purposes use only the first 500 observations of your data (dont get rid of the other observations, though, youll want them for the rest of this assignment).

Run the model from step 4 but with dummies for different values of distid, saving the result as m3. Then, do a joint F test on the dummies (see Chapter 13), and report if you can reject that the dummies are jointly zero at the 99% level. Tip: distid is stored as a numeric variable, but you want it to be treated as a categorical variable. If your regression result only has one coefficient for distid youve done it wrong.

mpdum <- head(mp, 500)
m3 <- lm(math4 ~ expp + lunch + factor(distid)-1, data = mpdum)
tidy(m3)

## # A tibble: 74 x 5
##    term                estimate std.error statistic  p.value
##    <chr>                  <dbl>     <dbl>     <dbl>    <dbl>
##  1 expp                 0.00884  0.000655    13.5   9.07e-35
##  2 lunch                0.801    0.193        4.14  4.14e- 5
##  3 factor(distid)1010 -29.7      8.78        -3.38  8.02e- 4
##  4 factor(distid)2010 -42.5     10.0         -4.24  2.77e- 5
##  5 factor(distid)2020 -68.2     11.3         -6.02  3.84e- 9
##  6 factor(distid)2070   0.950    6.87         0.138 8.90e- 1
##  7 factor(distid)2080 -31.1      8.64        -3.60  3.52e- 4
##  8 factor(distid)3000   1.79     6.31         0.283 7.77e- 1
##  9 factor(distid)3010   2.39     6.00         0.399 6.90e- 1
## 10 factor(distid)3020   9.00     6.27         1.44  1.52e- 1
## # ... with 64 more rows
…
